count,name,clone_url,stars_count,forks_count,visibility,language,created_time,size,open_issues_count
1,TextJustify-Android,https://github.com/mathew-kurian/TextJustify-Android.git,1862,379,public,Java,2013-09-13T04:19:31Z,4218,75
2,adminlte-laravel,https://github.com/mdbootstrap/adminlte-laravel.git,1815,515,public,PHP,2015-05-14T18:24:16Z,21848,42
3,xidel,https://github.com/benibela/xidel.git,623,39,public,Pascal,2015-06-11T21:29:20Z,2631,19
4,laravel-users,https://github.com/jeremykenedy/laravel-users.git,406,114,public,Blade,2017-02-25T20:58:45Z,199,2
5,RazorPageCleanArchitecture,https://github.com/neozhu/RazorPageCleanArchitecture.git,351,80,public,JavaScript,2021-08-03T23:36:14Z,57888,7
6,actionpack-page_caching,https://github.com/rails/actionpack-page_caching.git,343,74,public,Ruby,2012-10-04T14:04:59Z,94,3
7,jmcglone.github.io,https://github.com/jmcglone/jmcglone.github.io.git,222,259,public,HTML,2013-05-13T17:15:47Z,2247,4
8,kong-oauth2-hello-world,https://github.com/Kong/kong-oauth2-hello-world.git,174,50,public,JavaScript,2015-07-01T20:24:20Z,28,10
9,.config,https://github.com/zszszszsz/.config.git,159,82,public,Shell,2020-06-23T17:51:35Z,4,33
10,SHViewPager,https://github.com/shabib87/SHViewPager.git,125,25,public,Objective-C,2014-05-16T07:19:58Z,1100,5
11,inscribe.js,https://github.com/kenchangh/inscribe.js.git,118,2,public,JavaScript,2014-11-09T07:28:38Z,478,2
12,next-markdown,https://github.com/frouo/next-markdown.git,117,5,public,TypeScript,2022-02-26T14:56:50Z,1883,1
13,elixir-cowboy-react-spa,https://github.com/Angarsk8/elixir-cowboy-react-spa.git,116,7,public,JavaScript,2017-03-21T10:00:40Z,1928,2
14,jekyll-language-plugin,https://github.com/vwochnik/jekyll-language-plugin.git,115,45,public,Ruby,2015-11-12T23:49:50Z,459,10
15,Blackeye-v2.0,https://github.com/bhikandeshmukh/Blackeye-v2.0.git,101,39,public,HTML,2020-07-21T10:53:18Z,10555,6
16,instant.page,https://github.com/instantpage/instant.page.git,5912,205,public,JavaScript,2019-02-07T16:49:59Z,70,29
17,docker-flare,https://github.com/soulteary/docker-flare.git,1436,127,public,,2022-01-19T05:42:58Z,1974,93
18,direwolf,https://github.com/wb2osz/direwolf.git,1417,290,public,C,2015-08-04T02:24:27Z,142296,182
19,KAN-TTS,https://github.com/alibaba-damo-academy/KAN-TTS.git,394,64,public,Python,2022-08-18T09:23:39Z,221,36
20,GraceViewPager,https://github.com/wurensen/GraceViewPager.git,349,32,public,Java,2018-08-09T03:38:25Z,1431,4
21,1mb-club,https://github.com/bradleytaunt/1mb-club.git,330,231,public,HTML,2020-11-19T16:00:05Z,1238,0
22,tachyon,https://github.com/weebney/tachyon.git,312,3,public,JavaScript,2022-10-06T01:16:50Z,9487,0
23,mad,https://github.com/tj/mad.git,244,24,public,Shell,2012-04-14T19:43:14Z,42,9
24,hbworkspace2-100,https://github.com/harshalbenake/hbworkspace2-100.git,233,180,public,Java,2015-06-26T05:19:05Z,307516,1
25,10-Practice-Project-Html-CSS,https://github.com/anshuopinion/10-Practice-Project-Html-CSS.git,188,217,public,HTML,2022-02-07T11:00:00Z,28381,4
26,The-Complete-Practical-Certified-Ethical-Hacking-Course-in-English,https://github.com/priyankgada/The-Complete-Practical-Certified-Ethical-Hacking-Course-in-English.git,175,39,public,,2020-01-29T06:52:43Z,11,9
27,.config,https://github.com/zszszszsz/.config.git,159,82,public,Shell,2020-06-23T17:51:35Z,4,33
28,spa-laravel-vuejs,https://github.com/codekerala/spa-laravel-vuejs.git,154,83,public,PHP,2017-01-06T08:30:40Z,1126,21
29,dev-cheatsheets,https://github.com/tq-bit/dev-cheatsheets.git,129,24,public,,2020-12-22T15:33:32Z,2914,1
30,Magento-InfiniteScroll,https://github.com/Strategery-Inc/Magento-InfiniteScroll.git,121,60,public,HTML,2010-12-23T13:11:03Z,435,6
31,jigv,https://github.com/brentp/jigv.git,120,7,public,Nim,2020-03-17T02:06:53Z,247989,8
32,MagentoExtensions,https://github.com/5mehulhelp5/MagentoExtensions.git,116,108,public,PHP,2014-07-03T05:45:54Z,7799,4
33,6S191_MIT_DeepLearning,https://github.com/abusufyanvu/6S191_MIT_DeepLearning.git,110,52,public,Jupyter Notebook,2022-01-16T11:01:50Z,74361,1
34,Extending-Google-BERT-as-Question-and-Answering-model-and-Chatbot,https://github.com/Nagakiran1/Extending-Google-BERT-as-Question-and-Answering-model-and-Chatbot.git,108,34,public,Python,2019-08-07T18:21:48Z,364,8
35,MadCam---Termux-Hack-Front-camera-by-Sending-link,https://github.com/Abdinajibahmed/MadCam---Termux-Hack-Front-camera-by-Sending-link.git,102,7,public,,2021-04-02T04:53:21Z,7,8
36,android-about-page,https://github.com/medyo/android-about-page.git,2036,296,public,Java,2016-04-20T23:26:30Z,983,20
37,img-2,https://github.com/RevillWeb/img-2.git,1892,63,public,HTML,2017-12-10T15:42:09Z,607,7
38,vue-pizza,https://github.com/prograhammer/vue-pizza.git,930,237,public,JavaScript,2016-10-13T05:45:05Z,858,11
39,vue-2-boilerplate,https://github.com/petervmeijgaard/vue-2-boilerplate.git,869,266,public,JavaScript,2016-08-17T08:14:55Z,2542,18
40,EZSwipeController,https://github.com/Esqarrouth/EZSwipeController.git,844,81,public,Swift,2015-11-14T18:44:46Z,4228,24
41,AspNetWebStack,https://github.com/aspnet/AspNetWebStack.git,834,357,public,C#,2016-07-23T21:54:31Z,13743,5
42,vue-spa,https://github.com/skyronic/vue-spa.git,500,102,public,JavaScript,2016-03-11T01:15:20Z,436,1
43,laravel-users,https://github.com/jeremykenedy/laravel-users.git,406,114,public,Blade,2017-02-25T20:58:45Z,199,2
44,vue-ghpages-blog,https://github.com/viko16/vue-ghpages-blog.git,404,107,public,JavaScript,2015-11-17T09:47:58Z,2340,0
45,router-module,https://github.com/nuxt-community/router-module.git,401,27,public,TypeScript,2017-09-07T12:01:00Z,1867,29
46,ng2-slim-loading-bar,https://github.com/akserg/ng2-slim-loading-bar.git,358,94,public,TypeScript,2016-04-02T22:33:21Z,128,26
47,GraceViewPager,https://github.com/wurensen/GraceViewPager.git,349,32,public,Java,2018-08-09T03:38:25Z,1431,4
48,launchpage-rails,https://github.com/codelitt/launchpage-rails.git,321,54,public,Ruby,2012-05-03T00:31:46Z,148,14
49,webapi-angularjs-spa,https://github.com/MarlabsInc/webapi-angularjs-spa.git,299,147,public,JavaScript,2013-12-10T04:53:56Z,18405,3
50,sitemap_generator,https://github.com/adamsalter/sitemap_generator.git,267,308,public,Ruby,2009-07-01T05:58:14Z,513,5
51,hbworkspace2-100,https://github.com/harshalbenake/hbworkspace2-100.git,233,180,public,Java,2015-06-26T05:19:05Z,307516,1
52,chandrikadeb7.github.io,https://github.com/chandrikadeb7/chandrikadeb7.github.io.git,203,158,public,JavaScript,2020-07-03T10:15:03Z,152545,5
53,10-Practice-Project-Html-CSS,https://github.com/anshuopinion/10-Practice-Project-Html-CSS.git,188,217,public,HTML,2022-02-07T11:00:00Z,28381,4
54,The-Complete-Practical-Certified-Ethical-Hacking-Course-in-English,https://github.com/priyankgada/The-Complete-Practical-Certified-Ethical-Hacking-Course-in-English.git,175,39,public,,2020-01-29T06:52:43Z,11,9
55,kong-oauth2-hello-world,https://github.com/Kong/kong-oauth2-hello-world.git,174,50,public,JavaScript,2015-07-01T20:24:20Z,28,10
56,gophie,https://github.com/jankammerath/gophie.git,164,7,public,Java,2019-11-25T21:34:12Z,5384,13
57,.config,https://github.com/zszszszsz/.config.git,159,82,public,Shell,2020-06-23T17:51:35Z,4,33
58,spa-laravel-vuejs,https://github.com/codekerala/spa-laravel-vuejs.git,154,83,public,PHP,2017-01-06T08:30:40Z,1126,21
59,vue-fullpage,https://github.com/abel-oye/vue-fullpage.git,153,26,public,JavaScript,2017-07-03T07:50:51Z,5010,14
60,sublimetext-Pandoc,https://github.com/tbfisher/sublimetext-Pandoc.git,136,26,public,Python,2012-08-24T16:46:02Z,77,22
61,pure-full-page,https://github.com/xiaogliu/pure-full-page.git,129,27,public,JavaScript,2018-04-14T11:15:41Z,400,4
62,laravel-and-vue.js-spa-Recipe-Box,https://github.com/codekerala/laravel-and-vue.js-spa-Recipe-Box.git,124,57,public,PHP,2017-03-19T05:19:25Z,1631,8
63,ChatData,https://github.com/myscale/ChatData.git,119,7,public,Python,2023-06-28T12:40:39Z,7859,0
64,GYPageViewController,https://github.com/dev-gao/GYPageViewController.git,118,16,public,Swift,2016-06-20T09:37:59Z,88,1
65,elixir-cowboy-react-spa,https://github.com/Angarsk8/elixir-cowboy-react-spa.git,116,7,public,JavaScript,2017-03-21T10:00:40Z,1928,2
66,MagentoExtensions,https://github.com/5mehulhelp5/MagentoExtensions.git,116,108,public,PHP,2014-07-03T05:45:54Z,7799,4
67,6S191_MIT_DeepLearning,https://github.com/abusufyanvu/6S191_MIT_DeepLearning.git,110,52,public,Jupyter Notebook,2022-01-16T11:01:50Z,74361,1
68,CRUDlex,https://github.com/philiplb/CRUDlex.git,109,23,public,PHP,2014-08-28T22:14:53Z,5226,8
69,Extending-Google-BERT-as-Question-and-Answering-model-and-Chatbot,https://github.com/Nagakiran1/Extending-Google-BERT-as-Question-and-Answering-model-and-Chatbot.git,108,34,public,Python,2019-08-07T18:21:48Z,364,8
70,http2priorities,https://github.com/pmeenan/http2priorities.git,106,5,public,HTML,2018-11-21T14:09:33Z,1446,1
71,lipsiadmin,https://github.com/DAddYE/lipsiadmin.git,105,8,public,Ruby,2008-04-11T14:50:52Z,4692,0
72,MadCam---Termux-Hack-Front-camera-by-Sending-link,https://github.com/Abdinajibahmed/MadCam---Termux-Hack-Front-camera-by-Sending-link.git,102,7,public,,2021-04-02T04:53:21Z,7,8
73,Next-js-Boilerplate,https://github.com/ixartz/Next-js-Boilerplate.git,5758,1116,public,TypeScript,2020-07-22T19:47:35Z,8436,3
74,marketch,https://github.com/tudou527/marketch.git,2932,313,public,JavaScript,2015-05-29T08:07:59Z,27614,48
75,adminlte-laravel,https://github.com/mdbootstrap/adminlte-laravel.git,1815,515,public,PHP,2015-05-14T18:24:16Z,21848,42
76,Next-JS-Landing-Page-Starter-Template,https://github.com/ixartz/Next-JS-Landing-Page-Starter-Template.git,1478,493,public,TypeScript,2021-03-30T17:30:06Z,1378,0
77,shape_based_matching,https://github.com/meiqua/shape_based_matching.git,1111,457,public,C++,2018-07-09T07:23:53Z,36707,138
78,AspNetWebStack,https://github.com/aspnet/AspNetWebStack.git,834,357,public,C#,2016-07-23T21:54:31Z,13743,5
79,xidel,https://github.com/benibela/xidel.git,623,39,public,Pascal,2015-06-11T21:29:20Z,2631,19
80,reactspeedcoding,https://github.com/manavsehgal/reactspeedcoding.git,611,44,public,JavaScript,2016-04-10T17:05:07Z,5903,5
81,dorks-eye,https://github.com/BullsEye0/dorks-eye.git,485,116,public,Python,2020-04-30T11:25:31Z,1802,7
82,AFKPageFlipper,https://github.com/mtabini/AFKPageFlipper.git,407,88,public,Objective-C,2010-09-29T02:52:20Z,1227,24
83,laravel-users,https://github.com/jeremykenedy/laravel-users.git,406,114,public,Blade,2017-02-25T20:58:45Z,199,2
84,vue-ghpages-blog,https://github.com/viko16/vue-ghpages-blog.git,404,107,public,JavaScript,2015-11-17T09:47:58Z,2340,0
85,vectorlogozone,https://github.com/VectorLogoZone/vectorlogozone.git,350,42,public,SVG,2013-01-13T15:10:54Z,92945,17
86,GraceViewPager,https://github.com/wurensen/GraceViewPager.git,349,32,public,Java,2018-08-09T03:38:25Z,1431,4
87,pdf2json,https://github.com/flexpaper/pdf2json.git,286,50,public,C++,2015-04-07T19:56:47Z,6860,37
88,sitemap_generator,https://github.com/adamsalter/sitemap_generator.git,267,308,public,Ruby,2009-07-01T05:58:14Z,513,5
89,vue3-table-lite,https://github.com/linmasahiro/vue3-table-lite.git,235,70,public,Vue,2020-10-10T15:40:25Z,2154,6
90,hbworkspace2-100,https://github.com/harshalbenake/hbworkspace2-100.git,233,180,public,Java,2015-06-26T05:19:05Z,307516,1
91,MKS-DLC32,https://github.com/makerbase-mks/MKS-DLC32.git,225,90,public,,2021-08-18T04:48:34Z,102493,175
92,jmcglone.github.io,https://github.com/jmcglone/jmcglone.github.io.git,222,259,public,HTML,2013-05-13T17:15:47Z,2247,4
93,Oleose,https://github.com/ScoopThemes/Oleose.git,208,92,public,JavaScript,2014-10-06T16:58:40Z,12647,0
94,LTInfiniteScrollView-Swift,https://github.com/ltebean/LTInfiniteScrollView-Swift.git,200,32,public,Swift,2016-01-21T08:48:50Z,23,1
95,10-Practice-Project-Html-CSS,https://github.com/anshuopinion/10-Practice-Project-Html-CSS.git,188,217,public,HTML,2022-02-07T11:00:00Z,28381,4
96,The-Complete-Practical-Certified-Ethical-Hacking-Course-in-English,https://github.com/priyankgada/The-Complete-Practical-Certified-Ethical-Hacking-Course-in-English.git,175,39,public,,2020-01-29T06:52:43Z,11,9
97,mPurpose,https://github.com/dragdropsite/mPurpose.git,166,74,public,HTML,2014-04-13T17:23:01Z,3964,4
98,.config,https://github.com/zszszszsz/.config.git,159,82,public,Shell,2020-06-23T17:51:35Z,4,33
99,spa-laravel-vuejs,https://github.com/codekerala/spa-laravel-vuejs.git,154,83,public,PHP,2017-01-06T08:30:40Z,1126,21
100,Paging3-Android-Tutorial,https://github.com/MindorksOpenSource/Paging3-Android-Tutorial.git,144,23,public,Kotlin,2020-08-14T09:36:11Z,148,6
101,mvcdonutcaching,https://github.com/moonpyk/mvcdonutcaching.git,143,49,public,C#,2013-09-11T18:54:51Z,2073,30
102,vue3-sketch-ruler,https://github.com/kakajun/vue3-sketch-ruler.git,142,30,public,JavaScript,2021-09-15T00:40:48Z,4742,10
103,Paging-3-Sample,https://github.com/2307vivek/Paging-3-Sample.git,137,29,public,Kotlin,2020-08-05T11:38:39Z,176,2
104,sublimetext-Pandoc,https://github.com/tbfisher/sublimetext-Pandoc.git,136,26,public,Python,2012-08-24T16:46:02Z,77,22
105,kirby3-static-site-generator,https://github.com/d4l-data4life/kirby3-static-site-generator.git,133,8,public,PHP,2019-05-28T07:33:21Z,729,0
106,ionic3-start-theme,https://github.com/firminoweb/ionic3-start-theme.git,129,87,public,HTML,2018-01-15T17:38:31Z,728,4
107,bTabs,https://github.com/TerryZ/bTabs.git,128,25,public,JavaScript,2017-07-26T03:23:40Z,43,3
108,t-minus,https://github.com/johngrimes/t-minus.git,121,9,public,Ruby,2010-09-12T05:44:36Z,194,5
109,MagentoExtensions,https://github.com/5mehulhelp5/MagentoExtensions.git,116,108,public,PHP,2014-07-03T05:45:54Z,7799,4
110,jekyll-language-plugin,https://github.com/vwochnik/jekyll-language-plugin.git,115,45,public,Ruby,2015-11-12T23:49:50Z,459,10
111,svelte-demo,https://github.com/lukeed/svelte-demo.git,113,19,public,Svelte,2018-12-02T04:48:27Z,118,1
112,mazer-nuxt,https://github.com/fzn0x/mazer-nuxt.git,112,39,public,TypeScript,2021-01-24T11:56:40Z,13237,10
113,webscreensaver,https://github.com/lmartinking/webscreensaver.git,111,29,public,Python,2012-04-28T15:16:25Z,55,6
114,6S191_MIT_DeepLearning,https://github.com/abusufyanvu/6S191_MIT_DeepLearning.git,110,52,public,Jupyter Notebook,2022-01-16T11:01:50Z,74361,1
115,lipsiadmin,https://github.com/DAddYE/lipsiadmin.git,105,8,public,Ruby,2008-04-11T14:50:52Z,4692,0
116,MadCam---Termux-Hack-Front-camera-by-Sending-link,https://github.com/Abdinajibahmed/MadCam---Termux-Hack-Front-camera-by-Sending-link.git,102,7,public,,2021-04-02T04:53:21Z,7,8
117,vite-primevue-starter,https://github.com/sfxcode/vite-primevue-starter.git,100,25,public,CSS,2021-08-15T18:06:22Z,3712,4
118,Psychtoolbox-3,https://github.com/kleinerm/Psychtoolbox-3.git,100,300,public,C,2011-11-07T02:47:34Z,1444594,0
119,Next-js-Boilerplate,https://github.com/ixartz/Next-js-Boilerplate.git,5758,1116,public,TypeScript,2020-07-22T19:47:35Z,8436,3
120,direwolf,https://github.com/wb2osz/direwolf.git,1417,290,public,C,2015-08-04T02:24:27Z,142296,182
121,react-keepalive-router,https://github.com/GoodLuckAlien/react-keepalive-router.git,652,56,public,JavaScript,2020-11-20T03:56:06Z,11681,7
122,gulp-gh-pages,https://github.com/shinnn/gulp-gh-pages.git,607,68,public,JavaScript,2014-03-09T06:08:54Z,193,12
123,bootstrap-4-login-page,https://github.com/nauvalazhar/bootstrap-4-login-page.git,574,373,public,HTML,2017-08-28T18:37:15Z,1489,15
124,laravel-users,https://github.com/jeremykenedy/laravel-users.git,406,114,public,Blade,2017-02-25T20:58:45Z,199,2
125,win95.css,https://github.com/AlexBSoft/win95.css.git,404,47,public,HTML,2019-12-06T21:05:42Z,23488,0
126,chrome-extensions-archive,https://github.com/mdamien/chrome-extensions-archive.git,381,74,public,Python,2016-02-26T20:29:52Z,34231,14
127,Gumroad-Landing-Page-Generator,https://github.com/peterw/Gumroad-Landing-Page-Generator.git,363,51,public,Python,2023-04-21T01:48:42Z,12,1
128,aspnet5-angular2-typescript,https://github.com/chsakell/aspnet5-angular2-typescript.git,349,169,public,C#,2015-12-31T14:34:19Z,11001,4
129,GraceViewPager,https://github.com/wurensen/GraceViewPager.git,349,32,public,Java,2018-08-09T03:38:25Z,1431,4
130,actionpack-page_caching,https://github.com/rails/actionpack-page_caching.git,343,74,public,Ruby,2012-10-04T14:04:59Z,94,3
131,launchpage-rails,https://github.com/codelitt/launchpage-rails.git,321,54,public,Ruby,2012-05-03T00:31:46Z,148,14
132,bootstrap-4-github-pages,https://github.com/nicolas-van/bootstrap-4-github-pages.git,233,443,public,SCSS,2018-03-12T11:44:58Z,678,2
133,hbworkspace2-100,https://github.com/harshalbenake/hbworkspace2-100.git,233,180,public,Java,2015-06-26T05:19:05Z,307516,1
134,10-Practice-Project-Html-CSS,https://github.com/anshuopinion/10-Practice-Project-Html-CSS.git,188,217,public,HTML,2022-02-07T11:00:00Z,28381,4
135,symfony-vuejs,https://github.com/thecodingmachine/symfony-vuejs.git,178,52,public,PHP,2018-08-10T09:11:10Z,3047,35
136,The-Complete-Practical-Certified-Ethical-Hacking-Course-in-English,https://github.com/priyankgada/The-Complete-Practical-Certified-Ethical-Hacking-Course-in-English.git,175,39,public,,2020-01-29T06:52:43Z,11,9
137,.config,https://github.com/zszszszsz/.config.git,159,82,public,Shell,2020-06-23T17:51:35Z,4,33
138,laravel-and-vue.js-spa-Recipe-Box,https://github.com/codekerala/laravel-and-vue.js-spa-Recipe-Box.git,124,57,public,PHP,2017-03-19T05:19:25Z,1631,8
139,small-apps-bootstrap,https://github.com/themefisher/small-apps-bootstrap.git,118,59,public,HTML,2015-01-31T15:03:02Z,6319,0
140,MagentoExtensions,https://github.com/5mehulhelp5/MagentoExtensions.git,116,108,public,PHP,2014-07-03T05:45:54Z,7799,4
141,nipajin,https://github.com/ludus-leonis/nipajin.git,114,23,public,TeX,2015-08-25T05:30:13Z,2478,3
142,react-redux-starter,https://github.com/drminnaar/react-redux-starter.git,114,54,public,JavaScript,2018-02-25T08:25:06Z,123,3
143,CRUDlex,https://github.com/philiplb/CRUDlex.git,109,23,public,PHP,2014-08-28T22:14:53Z,5226,8
144,CleanArchitecture,https://github.com/Tillman32/CleanArchitecture.git,109,10,public,JavaScript,2018-05-01T08:32:45Z,2004,0
145,spring-mvc-angular-js-hibernate-bootstrap-java-single-page-jwt-auth-rest-api-webapp-framework,https://github.com/ykameshrao/spring-mvc-angular-js-hibernate-bootstrap-java-single-page-jwt-auth-rest-api-webapp-framework.git,105,75,public,Java,2015-12-11T02:14:54Z,1597,5
146,chatgpt-api-by-browser-script,https://github.com/zsodur/chatgpt-api-by-browser-script.git,102,28,public,JavaScript,2023-04-18T09:35:18Z,778,10
147,MadCam---Termux-Hack-Front-camera-by-Sending-link,https://github.com/Abdinajibahmed/MadCam---Termux-Hack-Front-camera-by-Sending-link.git,102,7,public,,2021-04-02T04:53:21Z,7,8
148,Data-Science-Cheatsheet,https://github.com/aaronwangy/Data-Science-Cheatsheet.git,4451,629,public,TeX,2021-02-05T06:01:57Z,4572,5
149,mazer,https://github.com/zuramai/mazer.git,2400,701,public,HTML,2021-01-19T12:11:47Z,82198,5
150,adminlte-laravel,https://github.com/mdbootstrap/adminlte-laravel.git,1815,515,public,PHP,2015-05-14T18:24:16Z,21848,42
151,ml_cheatsheet,https://github.com/remicnrd/ml_cheatsheet.git,1423,220,public,,2018-05-06T16:11:56Z,3550,4
152,shape_based_matching,https://github.com/meiqua/shape_based_matching.git,1111,457,public,C++,2018-07-09T07:23:53Z,36707,138
153,aero,https://github.com/Andy-Python-Programmer/aero.git,1053,47,public,Rust,2021-03-10T06:05:50Z,65473,25
154,AspNetWebStack,https://github.com/aspnet/AspNetWebStack.git,834,357,public,C#,2016-07-23T21:54:31Z,13743,5
155,fullpage,https://github.com/powy1993/fullpage.git,748,270,public,JavaScript,2014-11-10T04:21:42Z,539,5
156,MPFlipViewController,https://github.com/mpospese/MPFlipViewController.git,491,99,public,Objective-C,2012-06-04T09:51:38Z,7392,16
157,ladmin,https://github.com/hexters/ladmin.git,460,87,public,PHP,2020-03-13T06:42:04Z,12165,0
158,laravel-users,https://github.com/jeremykenedy/laravel-users.git,406,114,public,Blade,2017-02-25T20:58:45Z,199,2
159,plain-free-bootstrap-admin-template,https://github.com/PlainAdmin/plain-free-bootstrap-admin-template.git,321,54,public,HTML,2021-05-30T09:02:55Z,7872,1
160,sitemap_generator,https://github.com/adamsalter/sitemap_generator.git,267,308,public,Ruby,2009-07-01T05:58:14Z,513,5
161,golang-base-project,https://github.com/uberswe/golang-base-project.git,251,33,public,Go,2021-12-05T07:24:46Z,11977,5
162,hbworkspace2-100,https://github.com/harshalbenake/hbworkspace2-100.git,233,180,public,Java,2015-06-26T05:19:05Z,307516,1
163,MKS-DLC32,https://github.com/makerbase-mks/MKS-DLC32.git,225,90,public,,2021-08-18T04:48:34Z,102493,175
164,laravel-google-captcha,https://github.com/thinhbuzz/laravel-google-captcha.git,189,32,public,PHP,2015-08-04T19:33:39Z,55,0
165,10-Practice-Project-Html-CSS,https://github.com/anshuopinion/10-Practice-Project-Html-CSS.git,188,217,public,HTML,2022-02-07T11:00:00Z,28381,4
166,AppKit-Landing-Theme,https://github.com/xriley/AppKit-Landing-Theme.git,176,91,public,JavaScript,2016-01-08T06:42:36Z,20927,2
167,bootstrap-5-login-page,https://github.com/nauvalazhar/bootstrap-5-login-page.git,175,58,public,HTML,2021-03-05T19:08:16Z,1490,0
168,swipe-one-page-bootstrap-5,https://github.com/themesberg/swipe-one-page-bootstrap-5.git,162,24,public,SCSS,2020-08-14T07:44:00Z,4842,2
169,.config,https://github.com/zszszszsz/.config.git,159,82,public,Shell,2020-06-23T17:51:35Z,4,33
170,spa-laravel-vuejs,https://github.com/codekerala/spa-laravel-vuejs.git,154,83,public,PHP,2017-01-06T08:30:40Z,1126,21
171,laravel-and-vue.js-spa-Recipe-Box,https://github.com/codekerala/laravel-and-vue.js-spa-Recipe-Box.git,124,57,public,PHP,2017-03-19T05:19:25Z,1631,8
172,MagentoExtensions,https://github.com/5mehulhelp5/MagentoExtensions.git,116,108,public,PHP,2014-07-03T05:45:54Z,7799,4
173,mazer-nuxt,https://github.com/fzn0x/mazer-nuxt.git,112,39,public,TypeScript,2021-01-24T11:56:40Z,13237,10
174,coursespace-landing-page,https://github.com/hiriski/coursespace-landing-page.git,111,64,public,TypeScript,2022-05-03T12:06:29Z,3673,0
175,6S191_MIT_DeepLearning,https://github.com/abusufyanvu/6S191_MIT_DeepLearning.git,110,52,public,Jupyter Notebook,2022-01-16T11:01:50Z,74361,1
176,Vue-Laravel-SPA,https://github.com/AfikDeri/Vue-Laravel-SPA.git,105,77,public,PHP,2018-04-20T01:18:46Z,654,8
177,MadCam---Termux-Hack-Front-camera-by-Sending-link,https://github.com/Abdinajibahmed/MadCam---Termux-Hack-Front-camera-by-Sending-link.git,102,7,public,,2021-04-02T04:53:21Z,7,8
178,dgiot,https://github.com/dgiot/dgiot.git,5232,1466,public,Erlang,2021-02-23T05:45:57Z,120200,250
179,laravel-users,https://github.com/jeremykenedy/laravel-users.git,406,114,public,Blade,2017-02-25T20:58:45Z,199,2
180,hbworkspace2-100,https://github.com/harshalbenake/hbworkspace2-100.git,233,180,public,Java,2015-06-26T05:19:05Z,307516,1
181,laravel-google-captcha,https://github.com/thinhbuzz/laravel-google-captcha.git,189,32,public,PHP,2015-08-04T19:33:39Z,55,0
182,10-Practice-Project-Html-CSS,https://github.com/anshuopinion/10-Practice-Project-Html-CSS.git,188,217,public,HTML,2022-02-07T11:00:00Z,28381,4
183,.config,https://github.com/zszszszsz/.config.git,159,82,public,Shell,2020-06-23T17:51:35Z,4,33
184,CR-6-touchscreen,https://github.com/CR6Community/CR-6-touchscreen.git,145,34,public,PowerShell,2020-09-25T14:04:41Z,399211,5
185,ChatData,https://github.com/myscale/ChatData.git,119,7,public,Python,2023-06-28T12:40:39Z,7859,0
186,MagentoExtensions,https://github.com/5mehulhelp5/MagentoExtensions.git,116,108,public,PHP,2014-07-03T05:45:54Z,7799,4
187,6S191_MIT_DeepLearning,https://github.com/abusufyanvu/6S191_MIT_DeepLearning.git,110,52,public,Jupyter Notebook,2022-01-16T11:01:50Z,74361,1
188,Vue-Laravel-SPA,https://github.com/AfikDeri/Vue-Laravel-SPA.git,105,77,public,PHP,2018-04-20T01:18:46Z,654,8
189,Nginx-Lua-Anti-DDoS,https://github.com/C0nw0nk/Nginx-Lua-Anti-DDoS.git,962,266,public,Lua,2019-08-21T23:52:09Z,133,42
190,laravel-users,https://github.com/jeremykenedy/laravel-users.git,406,114,public,Blade,2017-02-25T20:58:45Z,199,2
191,RazorPageCleanArchitecture,https://github.com/neozhu/RazorPageCleanArchitecture.git,351,80,public,JavaScript,2021-08-03T23:36:14Z,57888,7
192,SSStackedPageView,https://github.com/PlenipotentSS/SSStackedPageView.git,275,38,public,Objective-C,2014-03-10T09:30:37Z,111,6
193,hbworkspace2-100,https://github.com/harshalbenake/hbworkspace2-100.git,233,180,public,Java,2015-06-26T05:19:05Z,307516,1
194,laravel-google-captcha,https://github.com/thinhbuzz/laravel-google-captcha.git,189,32,public,PHP,2015-08-04T19:33:39Z,55,0
195,10-Practice-Project-Html-CSS,https://github.com/anshuopinion/10-Practice-Project-Html-CSS.git,188,217,public,HTML,2022-02-07T11:00:00Z,28381,4
196,.config,https://github.com/zszszszsz/.config.git,159,82,public,Shell,2020-06-23T17:51:35Z,4,33
197,MagentoExtensions,https://github.com/5mehulhelp5/MagentoExtensions.git,116,108,public,PHP,2014-07-03T05:45:54Z,7799,4
198,react-keepalive-router,https://github.com/GoodLuckAlien/react-keepalive-router.git,652,56,public,JavaScript,2020-11-20T03:56:06Z,11681,7
199,jigsaw,https://github.com/rdkmaster/jigsaw.git,475,72,public,HTML,2017-05-18T11:27:04Z,74101,124
200,laravel-users,https://github.com/jeremykenedy/laravel-users.git,406,114,public,Blade,2017-02-25T20:58:45Z,199,2
201,Angular8-SpringBoot-CRUD-Tutorial,https://github.com/RameshMF/Angular8-SpringBoot-CRUD-Tutorial.git,237,307,public,TypeScript,2019-06-13T07:06:40Z,1446,28
202,hbworkspace2-100,https://github.com/harshalbenake/hbworkspace2-100.git,233,180,public,Java,2015-06-26T05:19:05Z,307516,1
203,AzureNamingTool,https://github.com/mspnp/AzureNamingTool.git,211,349,public,HTML,2023-06-23T16:32:27Z,6230,4
204,laravel-google-captcha,https://github.com/thinhbuzz/laravel-google-captcha.git,189,32,public,PHP,2015-08-04T19:33:39Z,55,0
205,10-Practice-Project-Html-CSS,https://github.com/anshuopinion/10-Practice-Project-Html-CSS.git,188,217,public,HTML,2022-02-07T11:00:00Z,28381,4
206,MaplePad,https://github.com/mackieks/MaplePad.git,175,10,public,C,2021-06-18T00:48:27Z,79492,12
207,.config,https://github.com/zszszszsz/.config.git,159,82,public,Shell,2020-06-23T17:51:35Z,4,33
208,SHViewPager,https://github.com/shabib87/SHViewPager.git,125,25,public,Objective-C,2014-05-16T07:19:58Z,1100,5
209,MagentoExtensions,https://github.com/5mehulhelp5/MagentoExtensions.git,116,108,public,PHP,2014-07-03T05:45:54Z,7799,4
210,cp437,https://github.com/keaston/cp437.git,113,13,public,C,2013-01-25T12:34:36Z,188,4
211,online-bookstore,https://github.com/scbushan05/online-bookstore.git,110,94,public,TypeScript,2020-01-29T15:53:46Z,3917,24
212,jigsaw,https://github.com/rdkmaster/jigsaw.git,475,72,public,HTML,2017-05-18T11:27:04Z,74101,124
213,hbworkspace2-100,https://github.com/harshalbenake/hbworkspace2-100.git,233,180,public,Java,2015-06-26T05:19:05Z,307516,1
214,laravel-google-captcha,https://github.com/thinhbuzz/laravel-google-captcha.git,189,32,public,PHP,2015-08-04T19:33:39Z,55,0
215,10-Practice-Project-Html-CSS,https://github.com/anshuopinion/10-Practice-Project-Html-CSS.git,188,217,public,HTML,2022-02-07T11:00:00Z,28381,4
216,.config,https://github.com/zszszszsz/.config.git,159,82,public,Shell,2020-06-23T17:51:35Z,4,33
217,Magento-InfiniteScroll,https://github.com/Strategery-Inc/Magento-InfiniteScroll.git,121,60,public,HTML,2010-12-23T13:11:03Z,435,6
218,MagentoExtensions,https://github.com/5mehulhelp5/MagentoExtensions.git,116,108,public,PHP,2014-07-03T05:45:54Z,7799,4
219,probability_cheatsheet,https://github.com/wzchen/probability_cheatsheet.git,2937,691,public,TeX,2014-07-13T18:00:05Z,4156,3
220,acf-composer,https://github.com/Log1x/acf-composer.git,354,46,public,PHP,2019-09-19T16:55:26Z,166,12
221,codrops-medium-style-page-transitions,https://github.com/briangonzalez/codrops-medium-style-page-transitions.git,257,40,public,CSS,2013-10-30T13:54:35Z,4196,4
222,hbworkspace2-100,https://github.com/harshalbenake/hbworkspace2-100.git,233,180,public,Java,2015-06-26T05:19:05Z,307516,1
223,laravel-google-captcha,https://github.com/thinhbuzz/laravel-google-captcha.git,189,32,public,PHP,2015-08-04T19:33:39Z,55,0
224,10-Practice-Project-Html-CSS,https://github.com/anshuopinion/10-Practice-Project-Html-CSS.git,188,217,public,HTML,2022-02-07T11:00:00Z,28381,4
225,I-know-where-your-page-lives,https://github.com/IOActive/I-know-where-your-page-lives.git,156,39,public,C++,2016-11-23T15:08:28Z,2419,0
226,ionic3-start-theme,https://github.com/firminoweb/ionic3-start-theme.git,129,87,public,HTML,2018-01-15T17:38:31Z,728,4
227,pure-full-page,https://github.com/xiaogliu/pure-full-page.git,129,27,public,JavaScript,2018-04-14T11:15:41Z,400,4
228,MagentoExtensions,https://github.com/5mehulhelp5/MagentoExtensions.git,116,108,public,PHP,2014-07-03T05:45:54Z,7799,4
229,PkgPage.jl,https://github.com/tlienart/PkgPage.jl.git,112,5,public,CSS,2020-06-03T20:08:15Z,1620,8
230,Extending-Google-BERT-as-Question-and-Answering-model-and-Chatbot,https://github.com/Nagakiran1/Extending-Google-BERT-as-Question-and-Answering-model-and-Chatbot.git,108,34,public,Python,2019-08-07T18:21:48Z,364,8
231,MadCam---Termux-Hack-Front-camera-by-Sending-link,https://github.com/Abdinajibahmed/MadCam---Termux-Hack-Front-camera-by-Sending-link.git,102,7,public,,2021-04-02T04:53:21Z,7,8
232,Blackeye-v2.0,https://github.com/bhikandeshmukh/Blackeye-v2.0.git,101,39,public,HTML,2020-07-21T10:53:18Z,10555,6
233,cppman,https://github.com/aitjcize/cppman.git,1230,78,public,Python,2010-07-03T15:58:20Z,9214,26
234,shape_based_matching,https://github.com/meiqua/shape_based_matching.git,1111,457,public,C++,2018-07-09T07:23:53Z,36707,138
235,hbworkspace2-100,https://github.com/harshalbenake/hbworkspace2-100.git,233,180,public,Java,2015-06-26T05:19:05Z,307516,1
236,NFCReaderWriter,https://github.com/janlionly/NFCReaderWriter.git,124,24,public,Swift,2020-06-04T10:14:23Z,412,0
237,MagentoExtensions,https://github.com/5mehulhelp5/MagentoExtensions.git,116,108,public,PHP,2014-07-03T05:45:54Z,7799,4
238,6S191_MIT_DeepLearning,https://github.com/abusufyanvu/6S191_MIT_DeepLearning.git,110,52,public,Jupyter Notebook,2022-01-16T11:01:50Z,74361,1
239,Flutter-Login-Page-UI,https://github.com/afgprogrammer/Flutter-Login-Page-UI.git,372,247,public,Dart,2019-10-06T14:45:04Z,517,3
240,hbworkspace2-100,https://github.com/harshalbenake/hbworkspace2-100.git,233,180,public,Java,2015-06-26T05:19:05Z,307516,1
241,VanillaCNN,https://github.com/ishay2b/VanillaCNN.git,188,80,public,Jupyter Notebook,2016-02-19T19:41:49Z,966,16
242,MagentoExtensions,https://github.com/5mehulhelp5/MagentoExtensions.git,116,108,public,PHP,2014-07-03T05:45:54Z,7799,4
243,hbworkspace2-100,https://github.com/harshalbenake/hbworkspace2-100.git,233,180,public,Java,2015-06-26T05:19:05Z,307516,1
244,Flutter-Login-Page-Design,https://github.com/afgprogrammer/Flutter-Login-Page-Design.git,212,45,public,Dart,2019-10-06T19:27:31Z,350,2
245,ChatGPT-Clone,https://github.com/SashenJayathilaka/ChatGPT-Clone.git,174,71,public,TypeScript,2022-07-03T03:25:40Z,644,3
246,.config,https://github.com/zszszszsz/.config.git,159,82,public,Shell,2020-06-23T17:51:35Z,4,33
247,NFCReaderWriter,https://github.com/janlionly/NFCReaderWriter.git,124,24,public,Swift,2020-06-04T10:14:23Z,412,0
248,GeoTag,https://github.com/marchyman/GeoTag.git,117,14,public,Perl,2011-05-12T20:02:26Z,245278,11
249,Next-js-Boilerplate,https://github.com/ixartz/Next-js-Boilerplate.git,5758,1116,public,TypeScript,2020-07-22T19:47:35Z,8436,3
250,Next-JS-Landing-Page-Starter-Template,https://github.com/ixartz/Next-JS-Landing-Page-Starter-Template.git,1478,493,public,TypeScript,2021-03-30T17:30:06Z,1378,0
251,cppman,https://github.com/aitjcize/cppman.git,1230,78,public,Python,2010-07-03T15:58:20Z,9214,26
252,relivator,https://github.com/blefnk/relivator.git,437,88,public,TypeScript,2023-08-12T20:07:56Z,11322,0
253,hbworkspace2-100,https://github.com/harshalbenake/hbworkspace2-100.git,233,180,public,Java,2015-06-26T05:19:05Z,307516,1
254,Flutter-Login-Page-3,https://github.com/afgprogrammer/Flutter-Login-Page-3.git,209,79,public,Dart,2019-10-07T16:37:06Z,220,0
255,reactspeedcoding,https://github.com/manavsehgal/reactspeedcoding.git,611,44,public,JavaScript,2016-04-10T17:05:07Z,5903,5
256,hbworkspace2-100,https://github.com/harshalbenake/hbworkspace2-100.git,233,180,public,Java,2015-06-26T05:19:05Z,307516,1
257,.config,https://github.com/zszszszsz/.config.git,159,82,public,Shell,2020-06-23T17:51:35Z,4,33
258,Firefox-Safari-15-Theme,https://github.com/denizjcan/Firefox-Safari-15-Theme.git,140,4,public,,2022-12-22T01:12:39Z,8004,10
259,react-keepalive-router,https://github.com/GoodLuckAlien/react-keepalive-router.git,652,56,public,JavaScript,2020-11-20T03:56:06Z,11681,7
260,hbworkspace2-100,https://github.com/harshalbenake/hbworkspace2-100.git,233,180,public,Java,2015-06-26T05:19:05Z,307516,1
261,.config,https://github.com/zszszszsz/.config.git,159,82,public,Shell,2020-06-23T17:51:35Z,4,33
262,hbworkspace2-100,https://github.com/harshalbenake/hbworkspace2-100.git,233,180,public,Java,2015-06-26T05:19:05Z,307516,1
263,hbworkspace2-100,https://github.com/harshalbenake/hbworkspace2-100.git,233,180,public,Java,2015-06-26T05:19:05Z,307516,1
264,6S191_MIT_DeepLearning,https://github.com/abusufyanvu/6S191_MIT_DeepLearning.git,110,52,public,Jupyter Notebook,2022-01-16T11:01:50Z,74361,1
265,hbworkspace2-100,https://github.com/harshalbenake/hbworkspace2-100.git,233,180,public,Java,2015-06-26T05:19:05Z,307516,1
266,shellphish,https://github.com/richardsonjf/shellphish.git,216,393,public,,2020-02-22T15:09:55Z,13450,5
267,6S191_MIT_DeepLearning,https://github.com/abusufyanvu/6S191_MIT_DeepLearning.git,110,52,public,Jupyter Notebook,2022-01-16T11:01:50Z,74361,1
